<?xml version="1.0" encoding="UTF-8" standalone="no"?>
<!-- Created with Inkscape (http://www.inkscape.org/) -->

<svg
   xmlns:dc="http://purl.org/dc/elements/1.1/"
   xmlns:cc="http://creativecommons.org/ns#"
   xmlns:rdf="http://www.w3.org/1999/02/22-rdf-syntax-ns#"
   xmlns:svg="http://www.w3.org/2000/svg"
   xmlns="http://www.w3.org/2000/svg"
   xmlns:sodipodi="http://sodipodi.sourceforge.net/DTD/sodipodi-0.dtd"
   xmlns:inkscape="http://www.inkscape.org/namespaces/inkscape"
   width="162.86"
   height="161.42999"
   id="svg2"
   version="1.1"
   inkscape:version="0.48.4 r9939"
   sodipodi:docname="body.svg">
  <defs
     id="defs4" />
  <sodipodi:namedview
     id="base"
     pagecolor="#ffffff"
     bordercolor="#666666"
     borderopacity="1.0"
     inkscape:pageopacity="0.0"
     inkscape:pageshadow="2"
     inkscape:zoom="1.3489583"
     inkscape:cx="370.8056"
     inkscape:cy="106.19717"
     inkscape:document-units="px"
     inkscape:current-layer="layer1"
     showgrid="false"
     inkscape:window-width="1366"
     inkscape:window-height="709"
     inkscape:window-x="0"
     inkscape:window-y="27"
     inkscape:window-maximized="1" />
  <metadata
     id="metadata7">
    <rdf:RDF>
      <cc:Work
         rdf:about="">
        <dc:format>image/svg+xml</dc:format>
        <dc:type
           rdf:resource="http://purl.org/dc/dcmitype/StillImage" />
        <dc:title></dc:title>
      </cc:Work>
    </rdf:RDF>
  </metadata>
  <g
     inkscape:label="Layer 1"
     inkscape:groupmode="layer"
     id="layer1"
     transform="translate(0,-890.93217)">
    <path
       sodipodi:type="arc"
       style="fill:#6c5353;fill-opacity:1"
       id="path2989"
       sodipodi:cx="210"
       sodipodi:cy="245.57143"
       sodipodi:rx="81.428574"
       sodipodi:ry="80.714287"
       d="m 291.42857,245.57143 c 0,44.57727 -36.45681,80.71428 -81.42857,80.71428 -44.97176,0 -81.42857,-36.13701 -81.42857,-80.71428 0,-44.57727 36.45681,-80.71429 81.42857,-80.71429 44.97176,0 81.42857,36.13702 81.42857,80.71429 z"
       transform="translate(-128.57143,726.07646)" />
    <path
       style="fill:#6c5d53;fill-opacity:1"
       d=""
       id="path3041"
       inkscape:connector-curvature="0"
       transform="translate(0,540.36218)" />
    <path
       style="fill:#6c5353;fill-opacity:1"
       id="path3075"
       d="m 136.72155,982.43658 c 0.6228,1.67046 1.13648,3.36866 1.59523,5.09055 0.34339,1.35433 0.75492,2.69012 1.01309,4.06443 0.0225,0.15214 0.0477,0.30389 0.0674,0.45641 0.0292,0.22567 0.0561,0.45161 0.0833,0.67752 0.003,0.0252 0.007,-0.0858 -0.0155,-0.0746 -1.57959,0.77834 -3.08733,1.7069 -4.70575,2.40092 -0.11216,0.0481 -0.0307,-0.24214 -0.0461,-0.36321 -0.32393,-1.53213 -0.93257,-2.97997 -1.62337,-4.37836 -0.0233,-0.0408 -0.47341,-1.03348 -0.79451,-1.01301 -0.15419,0.01 -0.44428,0.41154 -0.30181,0.35177 1.36266,-0.57168 2.5402,-1.69627 4.00316,-1.90461 0.49075,-0.0699 -0.36407,0.92466 -0.48951,1.40423 -0.1876,0.71718 -0.29842,1.45228 -0.44762,2.17842 -1.01587,6.76127 -1.08467,13.61126 -0.85073,20.42946 0.0554,0.8423 0.0989,1.6854 0.16626,2.5268 0.051,0.6371 0.10021,1.2751 0.18881,1.908 0.0515,0.3682 0.10569,0.741 0.23101,1.091 0.0314,0.088 0.30414,0.1293 0.22088,0.171 -4.88395,2.4443 -4.84127,3.3922 -4.09914,0.8017 0.0983,-0.5588 0.21201,-1.1152 0.29504,-1.6765 0.21362,-1.4441 0.35978,-2.8973 0.5433,-4.3455 0.32048,-2.5291 0.65176,-5.0567 0.98931,-7.5835 0.62235,-4.65015 1.74166,-9.21117 2.95768,-13.73585 0.53219,-2.13688 1.28235,-4.23803 1.64508,-6.41572 1.05727,2.05595 2.3e-4,0.41515 4.72047,-2.08222 0.0866,-0.0458 -0.0666,0.18447 -0.0935,0.27868 -0.11999,0.42042 -0.21155,0.84417 -0.34085,1.26281 -0.47601,1.61582 -0.96343,3.224 -1.5058,4.8194 -0.87727,2.66522 -1.94158,5.25916 -3.05693,7.83155 -1.1278,2.3653 -1.80317,2.4677 -5.64165,3.47755 -0.3129,0.082 -0.32054,-0.56415 -0.44261,-0.86385 -0.14976,-0.3676 -0.75013,-2.33091 -0.84092,-2.62299 -0.90985,-2.96757 -1.59864,-5.99936 -2.57128,-8.94769 -0.10887,-0.19131 -0.17741,-0.41207 -0.3266,-0.57391 -0.0516,-0.0559 -0.15118,-0.0176 -0.22677,-0.0264 1.48233,-0.7377 2.90253,-1.61635 4.447,-2.2131 0.19912,-0.0769 -0.1954,0.38358 -0.24763,0.59055 -0.1892,0.74972 -0.18873,1.55818 -0.2296,2.32043 0.0521,3.28847 0.61601,6.5883 1.74888,9.67827 0.10777,0.18955 0.41739,0.93274 0.78055,1.02184 0.1158,0.028 0.22107,-0.089 0.33161,-0.1341 -1.36879,0.7224 -2.69831,1.5246 -4.10637,2.16705 -0.21756,0.099 0.35268,-0.3271 0.49498,-0.51925 0.20732,-0.28 0.36557,-0.5932 0.54835,-0.8897 1.25903,-2.35855 2.06207,-4.91512 2.98409,-7.41369 0.32534,-0.81605 0.5973,-1.65175 0.89953,-2.47619 0.0417,-0.1136 0.0282,-0.27687 0.13268,-0.33786 4.87623,-2.84592 4.24183,-4.19833 4.94167,-1.87626 0.12075,2.33264 0.37206,4.6574 0.56203,6.98557 0.29607,2.97573 0.96807,1.69557 -4.49474,3.74575 -0.15741,0.0591 0.0435,-0.33395 0.0494,-0.50197 0.009,-0.25686 -0.003,-0.51404 -0.004,-0.77106 -0.33289,-3.02096 -1.39199,-5.90537 -2.401,-8.75432 -0.42463,-0.98227 -0.70639,-2.27306 -1.58671,-2.99908 -0.12862,-0.10608 -0.29966,-0.21592 -0.46386,-0.18706 -0.16789,0.0295 -0.53733,0.41331 -0.38525,0.33631 1.36935,-0.69326 2.69972,-1.46096 4.04958,-2.19145 -1.16427,1.43262 -1.58276,3.3121 -1.98027,5.07795 -0.0471,0.254 -0.10338,0.50648 -0.14137,0.762 -0.0255,0.17146 -0.0439,0.34446 -0.0489,0.51774 -0.003,0.0885 4.3e-4,0.17955 0.0263,0.26417 0.005,0.0168 0.0634,-0.0305 0.0476,-0.0228 -4.68043,2.27631 -5.93103,3.22699 -4.2724,2.00296 1.76953,-2.38201 2.05998,-2.27979 6.06048,-4.0037 0.13898,-0.0599 0.22299,0.20466 0.33448,0.30699 0.35864,0.2613 0.41148,0.7585 0.70491,1.0647 0.0231,0.0241 0.12965,-0.0138 0.10005,0.002 -4.77843,2.48249 -5.73805,3.63434 -4.4283,2.13355 0.3775,-1.0949 0.61304,-2.23161 0.99845,-3.32456 0.71126,-1.87587 0.335,-1.05459 5.0408,-2.36186 0.23542,-0.0654 0.21032,0.4411 0.31191,0.66331 0.41408,0.90575 0.8188,1.81322 1.24858,2.71186 0.4332,0.81968 0.76451,1.68906 1.18754,2.51351 0.0636,0.12403 0.44156,0.82851 0.60745,0.96846 0.055,0.0464 0.14255,0.0198 0.21382,0.0297 0.89747,-1.74972 -0.0631,0.24958 -4.12688,2.0448 -0.19865,0.0878 0.22232,-0.37406 0.31306,-0.57136 0.35182,-0.765 0.58678,-1.59723 0.85763,-2.39261 0.25668,-0.71731 0.43158,-1.45798 0.62289,-2.19379 0.0131,-0.0505 0.20979,-0.78938 0.2472,-0.81362 1.51011,-0.97826 3.08979,-1.84469 4.63469,-2.76703 0.52796,0.7223 0.74565,1.59743 1.04059,2.42679 0.14364,0.4039 0.4475,1.14166 0.61018,1.54307 0.1013,0.24265 0.19697,0.48772 0.3039,0.72794 0.10585,0.23782 0.24738,0.66605 0.52196,0.82305 0.0506,0.0289 0.22597,-0.0354 0.17454,-0.008 -4.76025,2.52937 -5.63476,3.44353 -4.19548,2.02467 0.56221,-1.50354 0.50529,-3.15481 0.61202,-4.73664 0.20348,-2.4776 0.51866,-1.78037 4.74733,-3.69058 0.20261,-0.0915 0.75802,1.85618 0.75852,1.85781 0.63451,1.81841 1.25053,3.64779 2.06299,5.39612 0.0317,0.0549 0.28823,0.64055 0.51129,0.66217 0.0643,0.006 0.18444,-0.17607 0.127,-0.14647 -1.46565,0.75526 -2.89075,1.58822 -4.36349,2.32955 -0.12067,0.0607 0.21398,-0.17053 0.29261,-0.28038 0.10448,-0.14596 0.16644,-0.31811 0.24965,-0.47716 0.54197,-1.40363 0.94329,-2.85239 1.35008,-4.29869 0.25352,-2.02971 4.38577,-5.79314 5.429,-3.40094 0.0593,0.136 0.0762,0.28677 0.11433,0.43016 0.25892,0.91276 0.28065,1.98256 0.79822,2.79739 0.0487,0.0281 0.10092,0.11768 0.14615,0.0843 0.0584,-0.0431 0.0964,-0.2482 0.0316,-0.21553 -1.48663,0.74886 -2.90015,1.63608 -4.37684,2.40437 -0.10329,0.0537 0.17012,-0.16046 0.24121,-0.25269 0.20873,-0.27076 0.31653,-0.51302 0.47351,-0.81568 1.0061,-2.50963 1.06529,-1.93948 5.23185,-3.96058 0.12408,-0.0602 0.61045,0.68624 0.62952,0.71317 0.39336,0.48095 0.45409,2.00577 1.27616,1.92387 1.54714,-1.30915 1.69501,-0.94976 -3.87758,2.09224 -0.0865,0.0472 0.1348,-0.14454 0.19231,-0.22458 0.004,-0.006 0.27004,-0.44674 0.29448,-0.48727 3.02297,-1.84281 4.86557,-4.47366 5.43765,-1.23522 0.34679,3.09399 0.0684,1.60141 -4.66932,4.20533 -0.651,-0.77801 -1.10979,-1.7029 -1.58309,-2.59635 -1.11225,-1.9636 -2.10028,-3.99345 -3.12721,-6.00219 -1.82332,-3.34981 -3.7108,-6.66888 -5.67467,-9.93882 -1.07137,-1.71659 -1.97991,-3.53146 -3.03288,-5.25777 -0.62058,-1.19914 -1.32134,-2.3529 -2.07765,-3.47056 -1.44974,-2.22267 -3.22354,-4.19523 -5.04717,-6.11231 -0.8577,-0.7177 -2.71328,-3.18689 -3.91721,-3.03421 -0.17436,0.0221 -0.32694,0.12909 -0.49041,0.19363 1.31122,-0.70505 2.57292,-1.51118 3.93366,-2.11516 0.28481,-0.12641 -0.46039,0.42277 -0.65994,0.66209 -0.26446,0.31719 -0.50386,0.65562 -0.72797,1.00249 -0.90517,1.40102 -1.52046,2.92127 -2.14666,4.45882 -0.95257,2.34515 -1.60781,4.7922 -1.9861,7.29197 -0.24126,1.9319 -0.0431,1.2673 -4.66132,2.05238 -0.31314,0.0532 0.147,-0.61809 0.22835,-0.92513 0.10731,-0.40501 0.21448,-0.81028 0.33757,-1.21078 0.31471,-1.02394 0.6911,-2.03664 1.05153,-3.04438 1.13183,-2.79254 1.90789,-5.71975 3.10906,-8.48409 1.0955,-1.84602 0.6273,-1.20984 5.06901,-2.75392 0.20809,-0.0723 0.17757,0.40575 0.22909,0.61995 0.19018,0.79078 0.14997,1.68143 0.20862,2.48811 0.0781,0.98588 0.13487,1.97324 0.18982,2.96062 0.03,0.5394 -0.0244,1.2129 0.25083,1.70552 -0.18147,-1.98213 0.084,-0.0386 -4.47268,2.14619 -0.12616,0.0605 0.12596,-0.25049 0.1747,-0.38164 0.1811,-0.48724 0.27247,-1.00143 0.36889,-1.50999 0.29883,-1.91523 0.059,-0.7771 4.84427,-2.28288 0.1704,-0.0536 0.0452,0.35444 0.0729,0.53092 0.11298,0.72103 0.24,1.44001 0.3523,2.16129 0.11252,0.24046 0.0923,1.2234 0.50443,1.32806 0.0204,0.005 0.33155,-0.35732 0.48228,-0.46466 0.19514,-0.0977 0.34049,-0.22738 0.57821,-0.11775 0.6533,0.30129 1.17021,1.47137 1.47153,2.06257 0.38644,0.6829 0.58606,1.50258 1.09124,2.11933 0.0922,0.11261 0.20161,0.23456 0.3426,0.27083 0.0963,0.0248 0.36479,-0.15799 0.27685,-0.11148 -1.3918,0.7361 -2.79317,1.45396 -4.18976,2.18094 1.22841,-1.49503 1.48107,-3.53284 1.72868,-5.39259 0.0669,-0.68243 0.10946,-0.87865 0.0947,-1.52896 -0.003,-0.14167 -0.005,-0.28531 -0.036,-0.42359 -0.0105,-0.0471 -0.0711,-0.16309 -0.0851,-0.11695 -0.0319,0.10502 -0.0785,0.37523 0.0208,0.3286 1.49257,-0.7004 2.89266,-1.58299 4.33898,-2.37448 -1.11124,2.05438 -1.8434,4.31 -2.51081,6.54288 -0.26423,0.89522 -0.52045,1.79855 -0.88398,2.66033 -0.0505,0.11981 -0.0596,0.28412 -0.17144,0.35041 -4.8359,2.86531 -3.92622,4.14291 -5.04781,2.03342 -0.51748,-2.60801 -0.95607,-5.22952 -1.48954,-7.83441 -0.15444,-0.7555 -0.26418,-1.32578 -0.43675,-2.06037 -0.0466,-0.19858 -0.0929,-0.39748 -0.15081,-0.59307 -0.0278,-0.094 -0.1339,-0.36837 -0.10594,-0.2744 0.60196,2.02287 1.64052,-0.50374 4.60788,-2.17508 -0.035,1.70013 0.56274,3.37284 1.07261,4.97713 0.24954,0.57067 0.76357,2.59167 1.56055,2.6888 0.10683,0.013 0.20706,-0.0588 0.31059,-0.0882 -7.5203,4.19108 -4.11709,2.51336 -2.74304,0.97568 0.9286,-1.03918 1.72594,-2.21924 2.55559,-3.33589 1.44104,-1.8879 2.50974,-4.02952 3.93338,-5.92724 1.20552,-1.47052 4.85632,-4.65791 5.35661,-2.1667 0.0453,0.22575 0.0508,0.75876 0.0573,0.97774 -0.0573,1.13177 0.17418,2.23535 0.37773,3.33986 0.0293,0.17541 0.0605,0.3505 0.0879,0.52622 0.013,0.0836 0.0683,0.65135 0.15885,0.79123 0.0306,0.0472 0.0446,-0.19304 -0.006,-0.16861 -1.53811,0.74155 -2.97884,1.68282 -4.54514,2.36282 -0.13809,0.06 0.074,-0.29185 0.11102,-0.43777 0.18509,-1.61217 0.23498,-3.24412 0.17453,-4.8657 -0.99171,-1.54239 -0.1739,-0.20117 4.62193,-2.28606 0.12051,-0.0524 -0.21099,0.1654 -0.28079,0.27675 -0.52876,0.84344 -0.82173,1.90877 -1.16039,2.83322 -0.83764,2.13789 -1.34744,4.39791 -2.22517,6.51999 -0.88068,1.79297 -0.43452,1.01556 -5.00784,2.3545 -0.21252,0.0622 -0.0714,-0.43805 -0.082,-0.65923 -0.0465,-0.96343 0.10735,-1.94919 0.19551,-2.90559 0.22154,-1.65708 0.17692,-3.33757 0.35974,-4.9965 1.59819,-0.77536 3.1299,-1.70616 4.79455,-2.32609 0.16063,-0.0598 0.0727,0.33548 0.0939,0.50557 0.0249,0.19932 0.0278,0.40079 0.0441,0.601 0.066,0.80973 0.23014,1.57326 0.4021,2.36674 0.0981,0.39392 0.5382,2.94367 1.10131,2.86448 0.0889,-0.0125 0.13351,-0.12001 0.20027,-0.18002 -7.71875,4.21523 -4.59566,3.08632 -3.47391,1.45058 0.3521,-0.51345 0.60874,-1.07967 0.86125,-1.64559 0.73781,-2.12329 4.51025,-6.13003 5.72346,-3.02662 0.33931,1.29522 0.63469,2.60141 0.97272,3.89687 -0.14951,-0.68724 0.19083,0.80565 0.22008,0.59593 0.0145,-0.10393 0.0233,-0.35164 -0.0714,-0.3066 -1.52921,0.72682 -2.91931,1.72461 -4.44718,2.45426 -0.12261,0.0586 0.0913,-0.25655 0.12229,-0.38885 0.0379,-0.16219 0.0559,-0.3284 0.0839,-0.4926 0.0196,-0.17289 0.0422,-0.34547 0.0588,-0.51867 0.0345,-0.35967 0.0443,-0.52902 0.0529,-0.86886 0.002,-0.0662 -0.0568,-0.16665 0.001,-0.19871 4.79175,-2.65022 4.11089,-4.08365 4.87991,-2.13548 0.16946,0.55851 0.18344,1.36581 0.70657,1.72906 1.37296,-1.19734 -0.15544,0.1497 -4.32852,2.24902 -0.11484,0.0578 0.20871,-0.15501 0.28879,-0.25556 0.10811,-0.13574 0.18925,-0.29155 0.26948,-0.44543 0.17945,-0.34417 0.33173,-0.75614 0.4742,-1.1162 0.67324,-1.925 2.97269,-7.20302 5.68731,-4.15256 0.4599,0.70682 0.68693,1.52026 0.97117,2.30543 0.0402,0.0934 0.075,0.18925 0.12064,0.2801 0.0236,0.047 0.0838,0.18474 0.0864,0.13218 0.004,-0.0883 -0.001,-0.29219 -0.0804,-0.25269 -1.54516,0.77192 -2.9674,1.77506 -4.51247,2.54717 -0.0999,0.0499 0.0561,-0.2168 0.0707,-0.32752 0.0218,-0.16461 0.0257,-0.33111 0.0386,-0.49667 0.041,-0.89041 0.0524,-1.78283 0.0425,-2.67416 -0.006,-0.53653 0.0904,-0.38363 -0.0517,-0.57715 7.65645,-3.53208 5.33595,-3.41944 4.3762,-1.76793 -0.48355,0.83208 -0.85328,1.74753 -1.26619,2.61628 -1.10605,2.24602 -2.39569,2.34915 -5.45015,3.85179 -0.26093,0.12837 -1.42712,-0.89398 -1.59876,-1.04076 -0.77415,-0.8233 -2.10465,-1.34481 -2.46165,-2.48542 1.01241,-4.65848 5.20837,-3.13777 7.68677,-2.27184 0.85706,0.42791 1.77632,0.77234 2.54022,1.36542 0.0703,0.0546 0.63524,0.57397 0.7322,0.66274 0.21989,0.18731 0.38565,0.58762 0.70754,0.64166 0.13514,0.0227 0.44338,-0.31946 0.32243,-0.25503 -1.4501,0.77252 -2.86242,1.61397 -4.29362,2.42096 0.37038,0.0132 0.65692,-1.21995 0.79872,-1.30678 1.54314,-0.94491 3.12877,-1.8186 4.69315,-2.7279 0.6527,0.38784 0.8734,1.09466 1.16405,1.75003 0.0399,0.0459 0.0665,0.10817 0.1197,0.13766 0.11715,0.065 0.27249,-0.41615 0.0802,-0.31804 -1.49756,0.76431 -2.89359,1.71433 -4.36857,2.52135 -0.0775,0.0424 0.11176,-0.13797 0.15408,-0.21545 0.0491,-0.0899 0.079,-0.18899 0.11846,-0.28349 0.0293,-0.10746 0.0634,-0.21373 0.088,-0.32238 0.0386,-0.17083 0.0885,-0.74603 0.0978,-0.75054 4.88623,-2.38589 5.17335,-3.89537 4.70966,-1.94214 -0.21758,0.70257 -0.41672,1.41831 -0.75085,2.07637 -2.8087,4.06913 -5.04719,4.14515 -5.56166,1.23958 -0.17437,-0.69715 0.0764,-1.50569 -0.30931,-2.13427 -0.46214,-0.27893 -1.13717,0.13172 -1.59839,0.26604 -0.21869,0.0637 -0.44121,0.11339 -0.66181,0.17009 -1.65544,0.35599 -3.34593,0.5338 -5.03812,0.50196 -1.48662,-0.0351 -2.80789,-0.6391 -4.13326,-1.24519 -1.86541,-0.85306 -1.03466,-0.45433 -3.01316,-1.48308 -3.23209,-1.77068 -6.46514,-3.55191 -9.54916,-5.57259 -1.37888,-0.98368 -2.40118,-1.67365 -2.8827,-3.33816 -0.26979,-1.24107 0.20796,-2.45494 0.61002,-3.61188 0.75515,-2.19125 1.30848,-4.45009 1.82742,-6.70746 0.0734,-0.36144 0.15103,-0.72207 0.22032,-1.08433 0.0949,-0.49636 0.19462,-1.0899 0.27111,-1.59993 0.0133,-0.0884 -0.0453,-0.22558 0.0344,-0.26589 5.07648,-2.56586 4.77581,-3.88739 4.81118,-1.25063 -0.10812,2.04063 0.17494,4.10692 -0.0446,6.14098 -1.58333,0.88139 -3.05464,2.00423 -4.75001,2.64417 -0.25407,0.0959 -0.29953,-0.45317 -0.44185,-0.68445 -0.87805,-1.42682 -0.23383,-0.45411 -1.24043,-2.15172 -0.39981,-0.67426 -1.17156,-1.87185 -1.5955,-2.53618 -0.64777,-0.92041 -1.1991,-1.94636 -2.07098,-2.68554 -0.10911,-0.0925 -0.54018,-0.46904 -0.7928,-0.31016 -0.0931,0.0586 -0.0993,0.19634 -0.14894,0.29451 1.43121,-0.79543 2.798,-1.71987 4.29365,-2.38629 0.17385,-0.0775 -0.12752,0.36004 -0.16497,0.54665 -0.0504,0.25127 -0.0741,0.50743 -0.0978,0.76261 -0.0901,0.96817 -0.0855,1.93337 -0.0626,2.90389 0.0451,0.48148 0.10466,1.3468 0.22577,1.84132 0.0443,0.18106 0.10558,0.36163 0.20055,0.52202 0.0404,0.0683 0.11822,0.17021 0.19198,0.1409 0.0864,-0.0343 0.18786,-0.29969 0.10441,-0.25867 -1.44444,0.70985 -2.83202,1.53001 -4.24803,2.29501 0.91123,-1.00862 1.52526,-2.23586 2.22286,-3.39235 1.12894,-1.67643 3.7985,-4.35321 5.40638,-2.75427 0.45778,0.45523 0.74965,1.1285 1.03128,1.69192 0.73738,1.7513 1.60528,3.4416 2.44742,5.14346 0.18637,0.22475 0.31976,0.65267 0.68555,0.39467 0.11991,-0.0846 0.39815,-0.41498 0.26635,-0.35049 -1.39336,0.6817 -2.66245,1.61257 -4.08937,2.22091 -0.23758,0.10129 0.29042,-0.42809 0.4149,-0.65438 0.16059,-0.29192 0.29269,-0.59861 0.43904,-0.89792 0.77524,-1.87314 1.27347,-3.84426 1.82234,-5.7916 0.61774,-1.98231 0.18397,-0.85824 4.93113,-2.63342 0.15028,-0.0562 0.12852,0.29504 0.17286,0.44923 0.16566,0.57605 0.23205,1.20405 0.35012,1.79102 0.28366,1.26855 0.55507,2.54228 0.86007,3.80604 1.54011,0.88593 1.10204,0.61636 -4.675,2.20412 -0.27235,0.0748 -0.11383,-0.55374 -0.1889,-0.82604 -0.11091,-0.40234 -0.22962,-0.80305 -0.36868,-1.19655 -0.48504,-1.3725 -0.70805,-1.76485 -1.33579,-3.11907 -0.78898,-1.50111 -1.53083,-3.03065 -2.41166,-4.48175 -0.17804,-0.29331 -0.35188,-0.59166 -0.56602,-0.85975 -0.0831,-0.10397 -0.42933,-0.1748 -0.3158,-0.24423 1.47987,-0.90491 3.08188,-1.59296 4.62283,-2.38944 0.63531,2.07275 1.8432,3.94084 2.89843,5.82391 0.85503,1.14867 1.5471,3.29015 2.76687,4.05178 0.0829,-0.0184 0.18365,-5e-4 0.24869,-0.0551 0.10048,-0.0843 0.32949,-0.38991 0.21197,-0.3316 -1.40695,0.69808 -2.69619,1.62573 -4.12677,2.274 -0.19988,0.0906 0.24186,-0.36695 0.34537,-0.56045 0.16473,-0.30797 0.47957,-1.05938 0.61396,-1.37179 0.27876,-0.63569 0.43857,-1.3121 0.67591,-1.96244 0.0437,-0.11962 0.038,-0.28411 0.14475,-0.35352 4.73331,-3.07776 3.74906,-4.29624 4.99991,-2.18658 0.52097,1.51308 0.7396,3.10819 1.26044,4.61931 -0.0813,-0.26705 0.26486,0.6765 0.43958,0.52832 0.0728,-0.0618 0.11275,-0.32782 0.0273,-0.2852 -1.50047,0.74826 -2.88432,1.71722 -4.38768,2.45966 -0.11495,0.0568 0.10385,-0.23569 0.1358,-0.35985 0.0428,-0.16642 0.0584,-0.33868 0.0875,-0.50802 0.12526,-1.06707 0.0379,-2.14565 0.29748,-3.19503 5.78906,-3.3425 4.30342,-3.74985 6.04808,0.0549 0.22064,0.49185 0.33352,0.77949 0.59923,1.23966 0.14744,0.25535 0.38624,0.62009 0.47738,0.58324 0.0817,-0.0331 0.10878,-0.30225 0.0299,-0.26283 -1.50585,0.75272 -2.94271,1.6362 -4.41406,2.4543 0.33146,-0.9026 0.28001,-1.91053 0.28668,-2.86089 0.13157,-2.55998 0.48566,-1.54351 4.92107,-3.37397 0.0286,-0.0118 0.29996,0.61481 0.305,0.6261 0.37865,0.5587 0.32473,1.49077 0.87328,1.92725 0.40915,-1.8214 0.0812,-0.18107 -4.48462,2.27499 -0.0517,0.0278 0.11481,-0.0395 0.15613,-0.0812 0.18177,-0.18316 0.21092,-0.51689 0.25645,-0.75177 0.10801,-0.65854 0.1012,-1.31312 -0.0466,-1.96305 -0.0127,-0.0187 -0.0477,-0.0768 -0.0382,-0.0562 0.91088,1.97156 0.62114,-0.0327 4.64725,-2.30848 0.0536,-0.0303 -0.0349,0.12042 -0.032,0.18194 0.007,0.15804 0.11707,0.52221 0.15299,0.65424 0.12082,0.3928 0.20013,0.79546 0.28383,1.19706 0.0293,0.1405 -0.01,0.36559 0.12628,0.41161 0.0282,0.01 0.009,-0.0589 0.0134,-0.0883 -6.08249,3.21837 -4.7084,3.5756 -4.03107,0.91464 0.72699,-1.99767 1.79732,-1.45205 4.98294,-2.9551 0.0841,-0.0397 0.46687,0.42558 0.53459,0.487 0.41677,0.46272 0.60478,1.06319 0.86722,1.61417 0.22879,0.55502 0.51897,1.07876 0.70074,1.65228 0.17628,0.66398 0.19373,1.35398 0.21005,2.03657 0.0391,0.68502 -0.10137,1.35333 -0.34832,1.98828 -0.37623,0.73626 -0.82647,1.4282 -1.39003,2.0335 -1.86383,1.80821 -4.28154,2.96052 -6.6857,3.90839 -1.84834,0.49115 -3.65443,1.11211 -5.51734,1.5499 -2.30294,0.5293 -4.35679,0.76288 -6.70153,0.44141 -1.01465,-0.2997 -2.0405,-0.63073 -2.93736,-1.21049 -1.2081,-0.78096 -2.31356,-1.78107 -3.3995,-2.71686 -0.42405,-0.39417 -0.84779,-0.78866 -1.27215,-1.18251 -1.00034,-0.92842 -1.75459,-1.60437 -2.71707,-2.58213 -1.42168,-1.44426 -2.7346,-2.99077 -4.06942,-4.51402 -2.04962,-2.4058 -3.95179,-4.94821 -5.44584,-7.7379 -0.65574,-1.27944 -0.95064,-2.63954 -1.01826,-4.0613 -0.11419,-1.37604 0.32149,-2.68055 0.76917,-3.95993 0.70235,-1.69624 1.49499,-3.35282 2.25736,-5.02234 0.51241,-1.05433 0.93926,-2.14242 1.16138,-3.29481 0.31199,-2.3561 -0.56003,-0.74741 4.84022,-3.16829 0.0161,-0.007 0.33121,0.51081 0.34125,0.52706 0.11837,0.21904 0.86477,1.49683 1.10042,1.39989 0.0796,-0.0327 0.0823,-0.15127 0.12344,-0.22691 -6.35862,3.7349 -4.75538,3.54428 -3.88399,1.50395 0.24233,-0.56741 0.39474,-1.13973 0.53034,-1.73984 0.44629,-2.58727 0.39428,-1.5479 5.08713,-3.35294 0.0627,-0.0241 0.41448,0.70343 0.41485,0.70416 0.18393,0.41691 0.24941,0.8692 0.37448,1.30371 0.0178,0.0618 0.094,0.23915 0.066,0.18126 -0.0377,-0.078 -0.0175,-0.27984 -0.0953,-0.24174 -1.56028,0.76439 -3.04075,1.68196 -4.56112,2.52294 0.12501,-1.15174 0.0904,-2.31749 0.0813,-3.4748 0.0869,-2.57094 0.27974,-1.53267 4.87623,-3.41045 0.0118,-0.005 0.27696,0.55796 0.30465,0.61613 0.29064,0.66043 0.43709,1.36948 0.68633,2.04559 0.25593,0.85464 0.52498,1.70379 0.87954,2.52363 -0.14192,0.73729 0.20165,0.0912 0.14563,0.11969 -1.55054,0.7877 -3.07578,1.62437 -4.6219,2.42073 -0.0399,0.0206 0.0804,-0.0504 0.0992,-0.0912 0.0493,-0.10697 0.0698,-0.43226 0.0793,-0.5292 0.0399,-0.71307 0.0311,-1.42782 0.0289,-2.1417 -0.0428,-0.65828 0.13244,-1.29615 0.23315,-1.94049 0.0127,-0.10553 0.0272,-0.21086 0.0381,-0.31659 0.0193,-0.18604 0.0264,-0.71045 0.0394,-0.71676 4.86331,-2.36734 4.76646,-3.90621 4.75151,-1.81667 -0.0362,1.29327 -0.0255,2.58693 -0.024,3.88048 0.0394,2.84978 0.0488,1.74308 -4.69502,4.11903 -0.0719,0.036 -0.4416,-0.40246 -0.66168,-0.64909 -0.84475,-1.11772 -1.53858,-2.33894 -2.23992,-3.54909 -0.22171,-0.40316 -0.41819,-0.77697 -0.66148,-1.16431 -0.0602,-0.0958 -0.12026,-0.19251 -0.19336,-0.27882 -0.0125,-0.0148 -0.073,-0.007 -0.0559,-0.0155 4.81844,-2.52711 4.39404,-4.13541 4.75885,-1.91836 0.34228,1.37843 0.81964,2.73967 1.52938,3.9732 0.0477,0.0621 0.35248,0.54578 0.54573,0.54344 0.0847,-0.001 0.26134,-0.21225 0.18625,-0.173 -1.44302,0.75411 -2.84508,1.58587 -4.29757,2.32155 -0.12872,0.0652 0.22204,-0.18769 0.31015,-0.30195 0.11248,-0.14587 0.19125,-0.31486 0.28688,-0.47229 0.57036,-0.98029 0.85161,-2.09443 1.39902,-3.0835 1.18642,-1.74402 4.439,-4.31289 5.5134,-2.09003 0.0617,0.12757 0.23563,0.63971 0.28281,0.77531 0.7765,2.45067 0.0619,1.53069 -4.55737,3.33271 -0.14666,0.0572 -0.15247,-0.27562 -0.22149,-0.41711 -0.0954,-0.1957 -0.18112,-0.39601 -0.27168,-0.59401 -0.65087,-1.26387 -0.98792,-2.67064 -1.94872,-3.74889 -0.0939,-0.064 -0.16834,-0.18417 -0.2817,-0.19189 -0.072,-0.005 -0.20679,0.19627 -0.1427,0.163 1.47166,-0.76397 2.89357,-1.62295 4.37807,-2.36164 0.1233,-0.0614 -0.19423,0.19849 -0.26651,0.31571 -0.22175,0.35961 -0.29392,0.68182 -0.41978,1.08207 -0.29166,1.22599 -0.50968,2.46904 -0.639,3.72257 -0.0629,0.68124 0.0307,0.0335 -0.0772,0.0821 -1.58087,0.7118 -3.09923,1.55657 -4.67474,2.28017 -0.0714,0.0328 0.0967,-0.12497 0.13347,-0.19446 0.0919,-0.17376 0.20053,-0.49697 0.26437,-0.6737 0.42741,-0.97323 0.59654,-1.35066 0.1916,-2.37671 -0.0313,-0.0675 -0.31843,-0.69053 -0.37294,-0.79839 -0.0339,-0.067 -0.0656,-0.13622 -0.11083,-0.19617 -0.009,-0.0115 -0.0555,-4.9e-4 -0.0427,-0.007 4.73083,-2.53547 4.34325,-4.19877 4.70929,-2.23429 0.26935,0.75942 0.69034,1.45244 1.04292,2.17584 0.43967,0.80706 0.79883,1.65076 1.05428,2.53312 0.19198,0.60431 0.41101,0.99372 1.07502,0.68838 0.0797,-0.0321 0.15798,-0.0679 0.23901,-0.0964 0.34306,-0.12081 1.20584,-0.62086 0.8289,-0.40606 -3.9318,2.24045 -5.53742,3.27015 -3.79822,2.16296 0.71271,-0.4702 1.15943,-1.11035 1.32499,-1.94431 0.0147,-0.57455 -0.57314,-0.54973 -1.01022,-0.58753 -0.59913,-0.18385 -1.20941,-0.3404 -1.83614,-0.25926 -0.41907,0.0788 -0.76036,0.31694 -1.12263,0.52124 -0.15514,0.0875 -0.62633,0.33927 -0.47215,0.25011 4.82244,-2.78888 5.12038,-2.98038 3.32858,-1.88031 -1.70447,1.10166 -3.45605,2.12552 -5.19682,3.168 -1.71325,1.0069 -3.35267,2.15007 -4.80016,3.51475 -0.97247,0.88629 -1.3558,1.74849 -1.70283,2.98846 -0.46578,2.12106 -0.75246,4.27792 -0.986,6.43536 -0.34605,3.58709 -0.38921,7.18402 -0.15077,10.77718 0.31551,4.13761 1.59034,8.09962 2.91782,12.00282 0.90307,2.45062 1.79749,4.90513 2.73714,7.34206 0.75621,2.21595 1.40864,4.46468 2.16825,6.6802 0.95035,2.8036 1.9033,5.60635 2.86177,8.40734 0.75967,2.17048 1.3574,4.40248 1.74783,6.669 0.26177,1.5688 0.54808,3.13321 0.83807,4.69705 0.22041,1.35031 0.54706,2.67953 0.92939,3.9922 0.38367,1.26194 0.76027,2.52465 1.11497,3.79508 0.41375,1.03698 0.81785,2.06848 1.11879,3.14463 0.42976,1.29772 0.88362,2.58782 1.3221,3.88347 0.47128,1.1209 0.74346,2.2965 0.97552,3.4842 0.20765,0.9419 0.34458,1.8953 0.41738,2.8565 0.0496,0.8254 0.044,1.653 0.0388,2.4795 0.0444,0.9779 -0.0853,1.9433 -0.20659,2.9103 -0.0975,0.8315 -0.12644,1.6684 -0.14225,2.5047 0.0305,0.7028 0.22863,1.3937 0.49634,2.0412 0.18445,0.5695 0.50906,1.0944 1.02691,1.41 0.62502,0.3999 1.36469,0.5608 2.03854,0.8553 0.60022,0.2547 1.23723,0.3572 1.85355,0.5615 0.62467,0.1864 1.27961,0.2017 1.92598,0.2226 3.06432,0.098 2.81384,-0.6955 -2.86367,2.8426 -0.61938,-0.099 -1.24883,-0.096 -1.87425,-0.1038 -1.0319,-0.03 -2.05066,-0.01 -3.07266,0.1318 -0.90186,0.1602 -1.819,0.1691 -2.72615,0.2733 -1.72613,0.1721 -3.46156,0.2169 -5.19466,0.262 -1.31804,0 -2.64402,0.1365 -3.9575,0 -2.61733,-0.2752 -5.11107,-1.2434 -7.59027,-2.0753 -3.5062,-1.1837 -6.99586,-2.4202 -10.55718,-3.432 -1.42767,-0.4056 -4.09913,-1.0908 -5.54851,-1.4672 -2.007946,-0.6019 -4.130396,-0.9062 -6.065316,-1.7477 -0.4647,-0.2022 -1.371075,-0.7047 -1.721095,-1.1611 -0.17476,-0.2279 -0.24738,-0.5184 -0.37108,-0.7775 -0.037,-0.3084 -0.10776,-0.6146 -0.11095,-0.9251 -0.0219,-2.1368 0.82497,-4.4296 1.433305,-6.4524 0.43037,-1.4482 0.94694,-2.8652 1.581,-4.2358 0,0 4.721446,-2.13675 4.721446,-2.13675 l 0,0 c -0.716806,1.33945 -1.261846,2.75155 -1.715796,4.20185 -0.68041,2.2627 -1.53176,4.5927 -1.3716,6.9888 0.0829,0.1993 0.12249,0.4229 0.24881,0.598 0.30015,0.4161 1.08428,0.8915 1.4887,1.0839 1.849116,0.8799 3.900136,1.2396 5.841476,1.8402 1.44632,0.385 4.11152,1.0872 5.53528,1.4959 3.59082,1.031 7.12233,2.2523 10.69243,3.3503 2.54482,0.7707 5.10283,1.6512 7.77904,1.7992 1.28752,0.059 2.57817,0.01 3.86644,0 1.74594,-0.047 3.49356,-0.1157 5.22761,-0.3381 0.91076,-0.091 1.82419,-0.1545 2.73079,-0.285 1.03818,-0.1053 2.07967,-0.089 3.1222,-0.081 0.71712,0.011 1.49231,-0.024 2.11911,0.3771 -4.37312,3.1878 -2.81182,3.1786 -5.93099,3.059 -0.68642,-0.036 -1.37333,-0.094 -2.02552,-0.3291 -0.62209,-0.1993 -1.27353,-0.307 -1.8629,-0.6038 -0.72092,-0.2784 -1.47818,-0.5047 -2.11985,-0.9484 -0.54149,-0.4365 -0.9533,-1.0015 -1.16873,-1.6682 -0.29502,-0.7125 -0.51094,-1.4685 -0.59091,-2.2368 0.0154,-0.8538 0.0449,-1.7078 0.1339,-2.5576 0.10123,-0.9511 0.30619,-1.8927 0.23124,-2.8549 -0.005,-0.815 2.2e-4,-1.6303 -0.0319,-2.4449 -0.0492,-0.9442 -0.15318,-1.8843 -0.35453,-2.8095 -0.24149,-1.1645 -0.4461,-2.3381 -0.93138,-3.4354 -0.42675,-1.3076 -0.87584,-2.6027 -1.34234,-3.89615 -0.31933,-1.0721 -0.70783,-2.11085 -1.10864,-3.15494 -0.35603,-1.26793 -0.72547,-2.52891 -1.11759,-3.78621 -0.39287,-1.32842 -0.70231,-2.68096 -0.93686,-4.04631 -0.3047,-1.56985 -0.5471,-3.15162 -0.80684,-4.72937 -0.34307,-2.2566 -0.89095,-4.47732 -1.63465,-6.63642 -0.91218,-2.81325 -1.87513,-5.61024 -2.86675,-8.39602 -0.78342,-2.19824 -1.46787,-4.42703 -2.20826,-6.63936 -0.94598,-2.45118 -1.72146,-4.96663 -2.61113,-7.43859 -1.29509,-3.95728 -2.54781,-7.9679 -2.93747,-12.13421 -0.26954,-3.61237 -0.30018,-7.17367 -0.0159,-10.78759 0.19256,-2.16101 0.47617,-4.3117 0.82977,-6.45227 0.33128,-1.30804 0.57021,-2.29007 1.60113,-3.25041 1.42796,-1.43705 3.10305,-2.61239 4.83394,-3.65547 1.7061,-1.04364 3.45325,-2.01951 5.11702,-3.13024 2.18033,-1.37533 0.85115,-0.54725 5.63018,-3.29447 0.54818,-0.31513 1.12572,-0.57755 1.76702,-0.60252 0.64927,0.0335 1.26936,0.18716 1.90089,0.33277 0.72837,0.15559 1.33915,0.47799 1.42007,1.29642 -0.0736,0.91822 -0.42272,1.76089 -1.16239,2.34122 -1.8692,1.52989 -4.03905,2.9673 -6.42754,3.4503 -0.79361,-0.0924 -1.24698,-0.57012 -1.45124,-1.33977 -0.22452,-0.86059 -0.58027,-1.6698 -1.00613,-2.45018 -0.36719,-0.76369 -0.8016,-1.49156 -1.1404,-2.26874 -0.46592,-1.96639 -0.16273,-0.3647 4.53852,-3.0363 0.05,-0.0284 0.067,0.0942 0.093,0.14553 0.0524,0.10346 0.20963,0.52033 0.2367,0.58271 0.0685,0.1578 0.14458,0.31216 0.21688,0.46825 0.47138,1.11168 0.5346,1.63027 0.0151,2.72249 -0.0773,0.18164 -0.30186,0.95275 -0.30922,0.95691 -1.58487,0.89644 -3.19598,1.75018 -4.84231,2.528 -0.0655,0.031 -0.081,-0.12784 -0.0847,-0.20021 -0.004,-0.0796 0.0421,-0.15366 0.0631,-0.23048 0.23187,-1.26362 0.37629,-2.54381 0.64447,-3.80175 0.0557,-0.22295 0.32933,-1.50939 0.51526,-1.62876 2.58427,-1.65912 3.72059,-4.01654 5.44844,-2.32716 0.93119,1.20979 1.29351,2.53046 1.99362,3.86247 0.0978,0.1826 0.19157,0.36739 0.2933,0.54782 0.0615,0.10913 0.2971,0.24611 0.19631,0.32052 -6.08846,4.49489 -3.88589,4.20604 -4.60497,1.95314 -0.0817,-0.22318 -0.14198,-0.45528 -0.2436,-0.67014 -0.0292,-0.0617 -0.0609,-0.12717 -0.11378,-0.17033 -0.0329,-0.0269 -0.1617,-0.003 -0.12515,-0.0245 4.25646,-2.52764 6.09816,-2.80689 4.14576,-2.47721 -0.76597,0.83922 -0.87959,2.07073 -1.45587,3.0324 -0.0454,0.0994 -0.43197,0.95985 -0.46743,0.98205 -1.66344,1.0419 -3.63866,3.67051 -5.28353,2.59954 -0.27028,-0.17597 -0.42802,-0.48322 -0.59727,-0.73989 -0.70023,-1.295 -1.19455,-2.69324 -1.63525,-4.09448 -0.57163,-2.18718 -0.28973,-0.51175 4.45422,-3.32125 0.0379,-0.0225 0.0386,0.0793 0.0584,0.11872 0.19079,0.38054 0.20117,0.39758 0.43453,0.8406 0.11466,0.21767 0.23006,0.43495 0.34509,0.65243 0.67717,1.16941 1.3687,2.34237 2.22878,3.38845 0.0946,0.0753 0.17363,0.1762 0.28392,0.22574 0.0391,0.0176 0.15737,-0.0667 0.12101,-0.0439 -1.44848,0.9078 -2.9065,1.80027 -4.35974,2.70041 0.0466,-0.0572 0.12141,-0.10013 0.13974,-0.17158 0.0866,-0.33774 -0.0729,-0.71186 0.0205,-1.04584 0.004,-1.28224 0.0218,-2.56489 -0.0256,-3.84664 -0.0751,-2.13369 -0.11437,-0.41422 4.72533,-2.97282 0.0431,-0.0228 -0.0171,0.0961 -0.0226,0.14453 -0.035,0.30976 -0.0355,0.62194 -0.0719,0.9316 -0.0756,0.63112 -0.26892,1.24468 -0.27486,1.87859 0.002,0.72213 0.008,1.44434 -0.003,2.16641 -0.002,0.0667 0.0262,0.8682 -0.0101,0.89021 -2.48017,1.5047 -4.089,4.20899 -5.03406,2.143 -0.32066,-0.83665 -0.64277,-1.67085 -0.88761,-2.53315 -0.25614,-0.65504 -0.40255,-1.34343 -0.67652,-1.99028 -0.97034,-1.85121 0.13033,-0.30621 4.43201,-2.83348 0.0574,-0.0337 -0.12883,-0.10812 -0.1858,-0.0736 -0.0735,0.0445 -0.0723,0.15734 -0.0908,0.24125 -0.0333,0.15077 -0.0425,0.30587 -0.0638,0.45881 -0.005,1.16837 -0.0131,2.33753 0.029,3.5053 -1.54287,0.9611 -4.01663,4.25982 -4.78635,2.6131 -0.20114,-0.43031 -0.10005,-0.99206 -0.3615,-1.40899 -0.0524,-0.0978 -0.0961,-0.20087 -0.15721,-0.29348 -0.0429,-0.0649 -0.21912,-0.13531 -0.153,-0.17633 1.47396,-0.91435 3.04702,-1.65991 4.53903,-2.54449 0.053,-0.0314 -0.13085,-0.0761 -0.18051,-0.0396 -0.16552,0.12148 -0.23433,0.70931 -0.25329,0.80258 -0.16012,0.81802 -0.36988,1.56482 -0.67366,2.34021 -0.0577,0.14722 -0.0415,0.35241 -0.17167,0.4422 -1.53058,1.0558 -3.15854,1.96295 -4.73781,2.94442 -0.1175,-0.0408 -0.24427,-0.0611 -0.35249,-0.12235 -0.58051,-0.32882 -0.81727,-1.09219 -1.22002,-1.58525 -1.18702,-1.67062 -1.59964,0.62224 4.34444,-2.85628 0.0323,-0.0189 -0.0876,-0.0342 -0.11206,-0.006 -0.11436,0.13249 0.049,0.40732 -0.10025,0.51538 -0.20008,1.21014 -0.62317,2.35254 -1.17374,3.4483 -0.76893,1.65349 -1.56358,3.29421 -2.26843,4.97699 -0.44274,1.20885 -0.88927,2.45612 -0.82557,3.76318 0.0494,1.35136 0.24557,2.67128 0.82825,3.91049 1.36252,2.80744 3.20613,5.35139 5.22508,7.72314 2.52473,2.89511 5.13031,5.71118 8.09622,8.16738 1.88196,1.56323 3.79202,3.16539 6.27028,3.61619 2.20786,0.24208 4.39132,-0.024 6.54452,-0.55994 1.88411,-0.49432 3.74238,-1.08487 5.5909,-1.69748 1.81496,-0.74115 3.6624,-2.03771 -3.32964,2.07437 -0.11428,0.0672 0.23928,-0.11534 0.35221,-0.1848 0.30918,-0.19015 0.38538,-0.28271 0.65399,-0.52701 0.59044,-0.54694 1.05215,-1.15841 1.45129,-1.85834 0.29973,-0.53592 0.46192,-1.15679 0.4538,-1.77165 -0.01,-0.63613 -0.0141,-1.27906 -0.15202,-1.90319 -0.15838,-0.55385 -0.45005,-1.04937 -0.65863,-1.58448 -0.23177,-0.48701 -0.38891,-1.03042 -0.77608,-1.42477 -0.0289,-0.0257 -0.19126,-0.1877 -0.26725,-0.21041 -0.0335,-0.01 -0.13534,0.0173 -0.10496,-2e-5 1.50053,-0.8564 3.0343,-1.65416 4.52714,-2.52388 0.0553,-0.0322 -0.13232,-0.0249 -0.19199,-0.002 -0.0706,0.0274 -0.11696,0.0961 -0.17545,0.1442 -0.12227,0.3187 -0.15867,0.63675 -0.24972,0.96464 -0.58548,2.10859 -2.2631,1.89369 -4.98757,3.28145 -0.44393,-0.52742 -0.33693,-1.26685 -0.58068,-1.89246 -0.0281,-0.0917 -0.37829,-1.00872 -0.29517,-1.06967 0.82857,-0.60758 3.99887,-4.67803 4.87415,-2.43698 0.14199,0.70921 0.22848,1.41093 0.126,2.13408 -0.22403,2.14013 -1.77005,6.14814 -5.23381,3.64386 -0.45275,-0.62383 -0.56395,-1.40193 -0.92728,-2.07386 -0.0447,-0.0934 -0.0879,-0.18742 -0.13408,-0.28004 -0.0267,-0.0535 -0.13476,-0.12595 -0.0844,-0.15815 6.59637,-4.21887 4.5734,-4.07368 4.28443,-1.80034 -0.01,1.01932 -0.005,2.04355 -0.13903,3.05595 -4.78766,3.02833 -4.41033,4.4236 -6.0646,0.74152 -0.27936,-0.5879 -0.48084,-1.2202 -0.78039,-1.79655 -0.0622,-0.11976 -0.13122,-0.23817 -0.21961,-0.34017 -0.0193,-0.0223 -0.11238,10e-4 -0.0873,-0.014 1.46114,-0.90305 2.94238,-1.77318 4.41357,-2.65976 -0.63637,0.7129 -0.26683,2.16247 -0.42131,3.05498 -0.016,0.19571 -0.076,0.99708 -0.10119,1.0155 -1.55876,1.13925 -4.21943,4.16111 -5.22005,2.50993 -0.0999,-0.16484 -0.16462,-0.34857 -0.24694,-0.52286 -0.48863,-1.47851 -0.70641,-3.03707 -1.29423,-4.48562 1.1734,1.32857 -0.084,-0.0633 4.41124,-2.61964 0.10779,-0.0613 -0.15633,0.19462 -0.21341,0.3047 -0.23322,0.44984 -0.28078,0.76088 -0.44115,1.25304 -0.0812,0.24928 -0.17238,0.49522 -0.25856,0.74282 -0.0696,0.16885 -0.79992,2.01212 -0.85574,2.05336 -1.53541,1.13464 -3.17513,2.12374 -4.81315,3.10445 -0.12791,0.0766 -0.29772,0.0662 -0.44509,0.0437 -0.13182,-0.0201 -0.24231,-0.11139 -0.36346,-0.16708 -1.28745,-1.14031 -1.77504,-2.93268 -2.74443,-4.3175 -1.0757,-1.99078 -2.26522,-3.9226 -3.21952,-5.97642 1.54633,-0.91317 3.0187,-1.96513 4.63899,-2.73952 0.14336,-0.0685 0.18736,0.25735 0.26735,0.39463 0.17571,0.30159 0.33511,0.61242 0.49894,0.92062 0.80103,1.50688 1.57496,3.02808 2.3719,4.53711 0.69433,1.41539 1.36482,2.81778 1.90846,4.29882 0.099,0.26983 0.49693,0.62408 0.28197,0.8149 -4.3053,3.82179 -3.92561,4.63968 -4.62412,2.77811 -0.21079,-1.28808 -0.52479,-2.55001 -0.80959,-3.8229 -0.17464,-0.73526 -0.14131,-0.56955 -0.28317,-1.2554 -0.0303,-0.14649 -0.0517,-0.29497 -0.0885,-0.43997 -0.0211,-0.0834 -0.15689,-0.19667 -0.0849,-0.24372 4.92078,-3.21455 5.40589,-4.10373 4.34079,-2.36826 -0.70562,1.93247 -1.16446,3.94452 -1.86605,5.87801 -0.12944,0.30425 -0.25535,0.61002 -0.3883,0.91274 -0.10856,0.24718 -0.11963,0.57562 -0.33618,0.73682 -1.54251,1.14829 -3.19508,2.14453 -4.84999,3.12391 -0.31101,0.18406 -0.74233,-0.005 -0.96288,-0.2186 -0.16367,-0.15863 -0.25978,-0.37459 -0.38967,-0.56188 -0.80042,-1.71445 -1.66302,-3.3997 -2.45208,-5.11972 -0.27517,-0.49786 -0.34925,-0.6903 -0.68866,-1.11142 -0.0684,-0.0849 -0.13225,-0.18447 -0.2302,-0.23237 -0.0585,-0.0286 -0.24905,0.0595 -0.19375,0.0251 4.78359,-2.97451 5.51208,-3.64404 3.99649,-2.31517 -0.7707,1.13102 -1.38089,2.36242 -2.15056,3.49493 -1.62462,0.96607 -3.19419,2.03138 -4.87386,2.8982 -0.12632,0.0652 -0.27575,-0.093 -0.38444,-0.18456 -0.69285,-0.58395 -0.50668,-2.11451 -0.67542,-2.89012 -0.0547,-1.24449 -0.0627,-2.49062 0.0341,-3.73398 0.0171,-0.21941 -0.10434,-0.51949 0.0677,-0.65674 1.45719,-1.16252 3.09992,-2.07123 4.64988,-3.10685 0.12306,0.009 0.25069,-0.006 0.36919,0.0285 1.2276,0.35782 2.16883,2.53103 2.88544,3.43609 0.78582,1.24461 1.55343,2.5068 2.36991,3.73156 0.19,0.285 0.38525,0.56702 0.59512,0.83772 0.0829,0.10695 0.39011,0.21229 0.28129,0.29271 -1.37008,1.01258 -2.89117,1.80301 -4.33675,2.70452 0.27475,-0.78878 0.2359,-1.57124 0.23921,-2.40281 0.005,-1.21592 -0.004,-2.43247 -0.0688,-3.64698 -0.20986,-2.51979 -0.29841,-0.78442 4.61448,-3.36635 0.0789,-0.0414 -0.11913,0.13854 -0.14725,0.22309 -0.29482,0.8865 -0.29449,1.85902 -0.58141,2.7482 -0.5175,2.25341 -1.04267,4.51294 -1.73744,6.7186 -0.33648,1.06544 -0.83015,2.17022 -0.67939,3.30985 0.33544,1.47028 1.37208,2.22684 2.53372,3.11052 3.00436,2.08822 6.19961,3.87734 9.44557,5.56134 2.27041,1.08687 4.60109,2.35292 7.17154,2.42586 1.67667,-0.0231 3.35376,-0.20314 4.97852,-0.63235 0.87808,-0.25332 2.0003,-0.76429 2.7022,0.0939 0.45478,0.79658 0.28172,1.43642 0.39054,2.31091 0.0402,0.26272 0.0549,0.42862 0.13168,0.67931 0.0196,0.064 0.0375,0.13124 0.0768,0.18536 0.013,0.0179 0.0848,-3.5e-4 0.0656,0.0108 -4.40684,2.5473 -6.15122,2.86193 -4.22697,2.48595 0.46768,-0.55719 0.54605,-1.23634 0.82616,-1.88714 0.31945,-2.02394 -0.0187,-0.31349 4.86113,-2.70473 0.0375,-0.0184 -0.036,0.0761 -0.0446,0.11694 -0.0202,0.0957 -0.0289,0.19341 -0.0415,0.29037 -0.0798,0.61428 -0.004,0.13737 -0.108,0.74039 -0.005,0.0195 -0.14338,0.63599 -0.1805,0.66108 -1.08122,0.73073 -4.00333,4.41906 -5.32728,2.3413 -0.0756,-0.18975 -0.45036,-1.36989 -0.75959,-1.07637 1.46752,-0.87858 2.93504,-1.75716 4.40255,-2.63574 -0.17339,0.13953 -0.20407,0.13576 -0.3072,0.37591 -0.15175,0.35337 -0.20165,0.75345 -0.46264,1.05914 -1.59788,0.9411 -3.1646,1.93721 -4.79363,2.82328 -0.42441,0.23085 -1.12592,-0.63439 -1.34109,-0.88843 -0.89039,-0.85203 -1.93407,-1.44473 -3.08941,-1.88237 -0.69813,-0.23176 -1.40994,-0.50711 -2.15426,-0.54196 -0.15245,-0.007 -0.58415,0.11717 -0.45662,0.0333 4.03766,-2.6543 5.84546,-2.08515 3.93037,-2.60394 -0.0166,0.0387 -0.0634,0.0764 -0.0497,0.11622 0.23238,0.6788 1.73454,1.53458 2.2285,2.06035 0.24748,0.182 0.63455,0.5265 0.97564,0.58596 0.10842,0.0189 0.41721,-0.12 0.32453,-0.0607 -1.34904,0.86368 -2.74172,1.65722 -4.11258,2.48583 0.12591,-0.11461 0.27286,-0.20969 0.37772,-0.34382 0.12834,-0.16416 0.20918,-0.36044 0.31377,-0.54067 0.32,-0.66998 0.665,-1.32811 0.95504,-2.012 0.0337,-0.0795 0.38032,-0.99172 0.43815,-1.02495 1.5987,-0.91868 3.27916,-1.6871 4.91875,-2.53065 0.0861,0.41491 0.0437,0.12492 0.036,0.76478 -0.0108,0.8927 -0.002,1.78567 -0.004,2.6784 -0.001,0.16909 -0.004,0.33817 -0.003,0.50726 3.2e-4,0.1334 0.1139,0.32259 0.005,0.40015 -2.73577,1.95501 -4.16161,4.54715 -5.03733,2.1324 -0.24202,-0.69254 -0.43282,-1.42171 -0.85529,-2.03096 -0.25101,1.78386 -0.0278,0.0206 4.36288,-2.55081 0.0817,-0.0478 -0.15082,0.12013 -0.20133,0.20016 -0.28115,0.44548 -0.3363,1.01227 -0.59867,1.46748 -0.76859,2.10808 -2.48799,6.74879 -5.97831,4.5588 -0.46646,-0.54132 -0.68407,-1.24362 -0.82574,-1.93535 -0.57945,-1.81738 -0.1396,-0.27925 4.52134,-2.81677 0.0614,-0.0334 -0.0239,0.13787 -0.0325,0.20728 -0.0586,0.47574 -0.0681,0.9551 -0.12117,1.43143 -0.0195,0.18086 -0.10443,0.97642 -0.10779,0.97886 -0.0204,0.0148 -3.69742,4.47503 -4.93146,2.67256 -0.0633,-0.0924 -0.18927,-0.70145 -0.19026,-0.70573 -0.28506,-1.28224 -0.6053,-2.5571 -0.99173,-3.81278 -0.39195,-1.12916 -1.27213,0.53981 4.31909,-2.7373 0.074,-0.0434 -0.13882,0.10393 -0.19256,0.17082 -0.18998,0.23648 -0.33716,0.57471 -0.46836,0.83696 -1.49802,3.6479 -1.79053,2.99953 -6.41153,5.5213 -0.13592,-0.0477 -0.28636,-0.0655 -0.40777,-0.14297 -0.87284,-0.55713 -0.91158,-2.34321 -1.19225,-3.22604 -0.18809,-0.80079 -0.39108,-1.58307 -0.48843,-2.40085 -0.0218,-0.18343 -0.0364,-0.36765 -0.0562,-0.5513 -0.0106,-0.0986 -0.11931,-0.24297 -0.0352,-0.29543 1.50068,-0.9356 3.09248,-1.71643 4.63872,-2.57464 -0.35022,0.37459 -0.30245,1.10085 -0.33686,1.56293 -0.0833,1.11918 -0.13878,2.24061 -0.24722,3.35794 -0.0774,0.92864 -0.15291,1.84457 -0.14051,2.77672 0.002,0.13682 0.12481,0.3368 0.009,0.41038 -1.48206,0.94531 -3.09571,1.66698 -4.62509,2.53364 -0.0775,0.0439 0.17359,-0.0402 0.26039,-0.0603 0.51581,-0.80741 0.7667,-1.67034 1.07641,-2.57558 0.44666,-1.30557 0.8532,-2.62145 1.29454,-3.92883 0.31883,-0.95085 0.68571,-1.88934 0.99092,-2.84428 0.0513,-0.16035 -0.017,-0.40557 0.12973,-0.4881 4.89647,-2.75408 4.35238,-4.05299 5.01915,-2.0397 -0.0957,1.63888 -0.0504,3.28172 -0.13167,4.92124 -0.11481,2.30761 0.10226,0.80033 -4.73718,3.34649 -0.22973,0.12087 -0.34066,-1.06342 -0.34747,-1.11312 -0.0237,-0.17298 -0.0523,-0.34526 -0.0785,-0.51788 -0.20336,-1.12646 -0.45776,-2.25135 -0.42365,-3.40437 -0.0825,-2.50834 -0.36842,-0.66902 4.39494,-3.43388 0.1,-0.058 -0.20068,0.11491 -0.30102,0.17237 -1.66491,1.76726 -2.65202,4.05274 -4.1219,5.97026 -2.65265,3.64825 0.74064,-1.01726 -1.72382,2.36707 -0.33417,0.45891 -1.4258,2.00117 -1.93564,2.30093 -1.66473,0.97878 -3.39284,1.84557 -5.08926,2.76836 -0.15472,-0.0492 -0.32181,-0.0696 -0.46417,-0.14771 -0.95489,-0.52378 -1.26207,-2.13307 -1.6396,-3.03984 -0.52411,-1.68011 -1.07087,-3.37448 -1.30787,-5.12278 1.5186,-1.00951 2.96622,-2.13494 4.55579,-3.02854 0.20126,-0.11314 0.31669,0.64421 0.3209,0.66713 0.16651,0.90783 0.27875,1.8253 0.45699,2.73117 0.47074,2.54628 0.91485,5.10422 1.59672,7.60424 0.74961,1.63963 0.10902,0.16536 -4.38875,2.69399 -0.11281,0.0634 0.20414,-0.16631 0.27347,-0.27559 0.50731,-0.79963 0.69186,-1.78579 1.01863,-2.65719 0.67803,-2.23106 1.43669,-4.43501 2.27214,-6.61228 1.58168,-0.98742 3.09888,-2.08656 4.74504,-2.96227 0.12601,-0.067 0.25137,0.14642 0.34395,0.25506 0.40932,0.48026 0.0747,1.87707 0.0564,2.42937 -0.26855,1.95204 -0.55861,3.94317 -1.48595,5.71022 -1.66479,0.94799 -3.27267,2.00376 -4.99438,2.84396 -0.14475,0.0706 -0.31459,-0.0944 -0.44435,-0.18983 -0.80001,-0.58834 -0.95998,-1.77703 -1.47348,-2.56456 -0.26211,-0.47951 -0.53966,-1.16271 -1.03918,-1.46451 -0.17504,-0.10576 -0.484,0.2375 -0.62974,0.25232 -1.07358,0.38702 -1.32571,-0.96454 -1.45253,-1.74646 -0.11021,-0.71804 -0.2454,-1.42281 -0.39387,-2.13351 -0.0339,-0.16211 -0.23105,-0.39354 -0.0948,-0.48771 1.47786,-1.02167 3.10263,-1.81328 4.67654,-2.6797 0.0581,-0.032 -0.0733,0.11056 -0.10995,0.16584 -0.0603,0.24653 -0.35478,1.93538 -0.45213,2.00294 -4.58149,3.17914 -3.36585,4.14318 -4.98184,2.6274 -0.2255,-0.63164 -0.19153,-1.26266 -0.22099,-1.93014 -0.0433,-0.98169 -0.10967,-1.96226 -0.19709,-2.941 -0.0704,-0.78002 -0.107,-1.56459 -0.23071,-2.3385 -0.0127,-0.0794 -0.11657,-0.19282 -0.0489,-0.23627 1.44243,-0.9263 2.95136,-1.74521 4.44485,-2.58671 0.12864,-0.0725 -0.23042,0.18469 -0.34563,0.27704 -1.4897,2.65647 -2.13005,5.69552 -3.28852,8.49649 -0.24965,0.72878 -0.76313,2.19298 -0.98622,2.96935 -0.11099,0.38626 -0.19968,0.77866 -0.29086,1.17008 -0.068,0.29206 0.0527,0.69938 -0.18668,0.88005 -1.50453,1.13577 -3.18109,2.03073 -4.84438,2.91789 -0.12143,0.0648 0.0776,-0.26407 0.11641,-0.39611 0.5128,-2.54168 1.12767,-5.06539 2.11783,-7.47086 0.60554,-1.53937 1.18909,-3.0748 2.01063,-4.51607 0.0696,-0.12213 0.98184,-1.63161 1.22711,-1.79224 1.6462,-1.07813 3.4026,-1.97781 5.1039,-2.96672 0.2029,-0.003 0.40883,-0.0445 0.60871,-0.009 1.38967,0.24378 2.87624,2.50875 3.93637,3.37836 1.82413,1.95591 3.67309,3.90745 5.18597,6.12229 0.77373,1.12058 1.56465,2.2405 2.15523,3.47206 0.96573,1.77671 1.80361,3.62353 2.83402,5.3666 1.91337,3.30916 3.77814,6.64655 5.69965,9.951 1.08199,1.97653 2.15001,3.95933 3.28876,5.90374 0.37518,0.67664 0.83846,1.67385 1.42898,2.16886 -1.46893,0.90254 -2.92992,1.81814 -4.40679,2.70763 -0.0372,0.0224 0.0716,-0.0597 0.0807,-0.10211 0.0195,-0.091 0.003,-0.18606 0.001,-0.27908 -0.005,-0.34277 -0.023,-0.68576 -0.0589,-1.02672 -0.0303,-0.20984 -0.0427,-0.3537 -0.10215,-0.55477 -0.0184,-0.0624 -0.0392,-0.12498 -0.0704,-0.1821 -0.0145,-0.0265 -0.0345,-0.0706 -0.064,-0.064 -0.0301,0.007 -0.0605,0.10143 -0.0339,0.0859 1.47205,-0.8595 2.92473,-1.75176 4.38709,-2.62765 -0.17813,0.18834 -0.19934,0.18771 -0.33142,0.44298 -0.0553,0.10695 -0.0432,0.26481 -0.14336,0.33159 -0.49038,0.32681 -3.43397,3.23902 -5.39371,2.9299 -0.8898,-0.51071 -0.97134,-1.37051 -1.43038,-2.20458 -0.0657,-0.0715 -0.112,-0.16759 -0.19704,-0.21437 -0.031,-0.0171 -0.12022,0.075 -0.09,0.0564 1.4312,-0.87892 2.83629,-1.80181 4.2931,-2.63759 0.0963,-0.0553 -0.12858,0.18161 -0.18193,0.27897 -0.19002,0.34676 -0.22603,0.49982 -0.36143,0.88076 -0.0712,0.165 -0.4615,1.15173 -0.59682,1.23708 -2.17721,1.3733 -3.75901,4.14063 -5.2837,2.38037 -0.48686,-0.9006 -0.57444,-1.96081 -0.87663,-2.93127 -0.31243,-1.69693 0.0325,-0.2504 4.44901,-2.79459 0.0704,-0.0406 -0.15595,0.0618 -0.21179,0.12082 -0.25178,0.26629 -0.29109,0.55739 -0.4025,0.90158 -0.46894,1.43327 -0.82079,2.90408 -1.30949,4.33254 -0.0165,0.0531 -0.2588,0.92937 -0.38337,1.0063 -2.94598,1.81926 -4.46437,4.32594 -5.73147,1.65978 -0.75744,-1.78726 -1.37501,-3.63031 -2.07536,-5.44027 -0.46696,-1.2121 -0.1168,-0.33793 -0.47746,-1.18066 -0.007,-0.0162 0.01,0.0558 0.0247,0.0467 1.47782,-0.88736 2.91396,-1.84406 4.40607,-2.70718 0.0862,-0.0499 -0.13222,0.15636 -0.16115,0.25169 -0.0578,0.19039 -0.0628,0.39296 -0.0941,0.58944 -0.17144,1.62803 -0.11854,3.28324 -0.46131,4.89145 -0.57928,2.2529 -0.0783,0.81777 -5.03612,3.07656 -0.1061,0.0483 -0.19803,-0.12793 -0.2767,-0.21399 -0.44129,-0.48272 -0.55073,-1.16163 -0.83729,-1.72864 -0.44037,-1.11713 -0.82928,-2.25148 -1.37739,-3.31984 -0.017,-0.0331 0.0392,0.0634 0.0588,0.0951 1.46725,-0.89498 2.93449,-1.78996 4.40174,-2.68494 -0.0605,0.0803 -0.13629,0.15109 -0.18151,0.24088 -0.4282,0.85013 -0.42687,1.87373 -0.82858,2.73738 -0.8712,2.64671 -1.7709,7.0351 -6.17351,6.01351 -1.09434,-0.92347 -1.3117,-2.67568 -2.04335,-3.86237 -0.4407,-0.88529 -0.85021,-1.78883 -1.31419,-2.66226 -0.094,-0.17688 -0.45598,-0.40036 -0.29708,-0.52227 1.37733,-1.05664 2.98122,-1.77947 4.46718,-2.67692 0.0636,-0.0384 -0.1329,0.0662 -0.19934,0.0994 -0.49235,1.04265 -0.71245,2.18174 -0.98629,3.29614 -0.25091,2.19666 0.0409,0.66475 -4.8631,2.95361 -0.0365,0.0171 -0.60173,-0.93459 -0.77607,-1.0631 -1.80888,-0.22607 -0.10908,0.016 4.20413,-2.53325 0.10491,-0.062 -0.23311,0.0786 -0.33627,0.14347 -0.44351,0.2789 -0.6585,0.73863 -0.93901,1.16003 -0.99761,1.99199 -0.30018,0.79289 -5.13876,2.82534 -0.58029,0.24376 0.17644,-2.4599 0.002,-2.02866 0.41721,-1.83397 0.87209,-3.69722 1.79675,-5.35069 1.65239,-0.99942 3.25267,-2.09057 4.95716,-2.99827 0.18553,-0.0988 0.43226,-0.048 0.63015,0.0228 1.0722,0.38374 1.70724,2.7073 2.06611,3.59982 1.00128,2.89288 2.02649,5.79973 2.61191,8.81053 0.0226,0.25997 0.0491,0.51964 0.0677,0.77992 0.0122,0.17065 0.16731,0.41784 0.0249,0.51267 -5.41009,3.60241 -4.65666,4.06021 -4.81812,0.97771 -0.14194,-2.29388 -0.38163,-4.57569 -0.66795,-6.85506 0.36443,-1.85715 0.0238,-0.33325 4.53787,-2.77081 0.10807,-0.0584 -0.16299,0.18692 -0.21943,0.296 -0.4151,0.80231 -0.59689,1.71514 -1.00157,2.52234 -0.97683,2.4859 -1.75223,5.05367 -2.91669,7.46402 -0.0703,0.14078 -0.72417,1.50701 -0.86587,1.59731 -1.62882,1.0382 -3.31528,1.99615 -5.06347,2.81755 -0.16743,0.079 -0.37013,-0.086 -0.51988,-0.1942 -0.40637,-0.2948 -0.59226,-0.8785 -0.78536,-1.29125 -1.00764,-3.18819 -1.57695,-6.51461 -1.82013,-9.84684 0.005,-1.37177 -0.0245,-1.10869 0.0787,-2.36293 0.0216,-0.26295 -0.13766,-0.63534 0.0778,-0.7877 1.55659,-1.10103 4.19508,-4.03198 5.1896,-2.40527 0.13014,0.21287 0.19913,0.45754 0.29869,0.68632 0.8478,2.9871 1.49402,6.03334 2.50356,8.97344 0.18624,0.53891 0.63541,1.90028 0.90593,2.4733 0.0926,0.19614 0.51549,0.41432 0.34675,0.5506 -1.30478,1.05378 -2.8517,1.76628 -4.28792,2.63238 -0.14267,0.086 0.30218,-0.1612 0.40601,-0.2915 0.18594,-0.2333 0.29674,-0.5176 0.44511,-0.7764 1.17291,-2.53738 2.28606,-5.10245 3.08259,-7.78807 0.519,-1.57281 0.97953,-3.15704 1.38463,-4.76226 0.15303,-0.42206 0.17035,-0.42312 0.26194,-0.85177 0.0231,-0.10793 0.10711,-0.65809 0.12038,-0.66741 4.62919,-3.2499 3.65375,-4.48822 4.88279,-2.46025 -0.77566,2.15004 -1.23474,4.40432 -1.96119,6.57049 -1.27517,4.51083 -2.4332,9.06715 -3.07279,13.71782 -0.60772,4.4967 -1.1274,9.0027 -1.57267,13.5178 -0.3679,2.9619 0.12162,1.62 -5.06829,4.1081 -0.14791,0.071 -0.17012,-0.2881 -0.20078,-0.4492 -0.11804,-0.6204 -0.18699,-2.8212 -0.19979,-3.1708 -0.0315,-0.8618 -0.0531,-1.7241 -0.0796,-2.5861 -0.0471,-6.8161 -0.0322,-13.6449 0.65387,-20.4345 0.10027,-0.72164 0.17835,-1.4467 0.30082,-2.1649 0.0849,-0.49773 -0.0484,-1.13596 0.32077,-1.48038 1.45696,-1.35916 3.20491,-2.37919 4.91416,-3.40316 0.17207,-0.10308 0.41774,0.006 0.59268,0.10416 0.3494,0.19604 0.67808,0.91914 0.83586,1.20268 0.71183,1.43994 1.311,2.93153 1.78856,4.46601 0.41742,2.08551 0.19082,0.4127 -4.56801,3.09197 -0.0391,0.022 -0.0369,-0.0832 -0.0428,-0.12764 -0.03,-0.22401 -0.0199,-0.45177 -0.041,-0.67679 -0.0139,-0.14793 -0.0327,-0.29534 -0.0491,-0.44301 -0.20686,-1.37699 -0.58613,-2.71384 -0.9107,-4.0661 -0.44153,-1.69354 -0.9115,-3.37585 -1.66839,-4.96223 0,0 4.61536,-2.59213 4.61536,-2.59213 z"
       inkscape:connector-curvature="0" />
    <path
       sodipodi:type="arc"
       style="fill:#483e37;fill-opacity:1"
       id="path3047"
       sodipodi:cx="159.43661"
       sodipodi:cy="243.75356"
       sodipodi:rx="10.578732"
       sodipodi:ry="48.359921"
       d="m 170.01535,243.75356 c 0,26.70844 -4.73626,48.35992 -10.57874,48.35992 -5.84247,0 -10.57873,-21.65148 -10.57873,-48.35992 0,-26.70845 4.73626,-48.35993 10.57873,-48.35993 5.84248,0 10.57874,21.65148 10.57874,48.35993 z"
       transform="translate(-128.57143,726.07646)" />
    <path
       style="fill:#6c5353;fill-opacity:1"
       id="path3053"
       d="m 100.28928,932.02513 c 1.60709,2.57279 2.94352,5.2803 4.1318,8.06727 1.24501,2.78618 2.26644,5.66985 3.12825,8.5959 0.64686,2.02583 1.14803,4.08503 1.42167,6.19363 0.16014,1.7807 0.17197,3.57009 0.18148,5.35658 0.14343,1.54377 0.43537,3.06675 0.58954,4.6105 0.1456,1.59366 0.14413,3.19444 0.14893,4.79302 0.005,1.67407 0.007,3.34815 0.008,5.02222 0.1666,1.84278 0.43323,3.67277 0.58291,5.51879 0.14124,1.79682 0.16059,3.59883 0.15409,5.40005 4.7e-4,1.36102 -4.7e-4,0.68419 0.003,2.03051 0,0 -9.92363,5.05676 -9.92363,5.05676 l 0,0 c 0.002,-1.34494 0.003,-0.66965 -0.002,-2.02586 -0.0226,-1.77601 -0.0271,-3.5533 -0.12583,-5.32719 -0.12644,-1.87091 -0.36344,-3.72585 -0.650066,-5.57875 0.005,-1.67467 0.0136,-3.34935 0.01,-5.02404 -0.011,-1.56588 -0.0228,-3.13342 -0.12513,-4.6965 -0.1318,-1.57996 -0.39188,-3.1389 -0.62457,-4.70613 0.005,-1.74972 0.0197,-3.50251 -0.11604,-5.24833 -0.20446,-2.06755 -0.62788,-4.09625 -1.27006,-6.0748 -0.76868,-2.90903 -1.74795,-5.7727 -3.00872,-8.50662 -1.118815,-2.73882 -2.414935,-5.404 -4.183145,-7.79124 0,0 9.669041,-5.66577 9.669041,-5.66577 z"
       inkscape:connector-curvature="0" />
  </g>
</svg>
